doc/call_td157-274-2.vcd
$comment Call Retekess TD157, Keyboard 274, Pager 2 $end
$timescale 1us $end
$var wire 1 ! RX $end
$enddefinitions $end
#2314
0!
#2005279
1!
#2005510
0!
#2006140
1!
#2006783
0!
#2006987
1!
#2007221
0!
#2007836
1!
#2008074
0!
#2008687
1!
#2008923
0!
#2009552
1!
#2010189
0!
#2010387
1!
#2010610
0!
#2011242
1!
#2011477
0!
#2012100
1!
#2012763
0!
#2012947
1!
#2013166
0!
#2013803
1!
#2014037
0!
#2014662
1!
#2014856
0!
#2015489
1!
#2015721
0!
#2016341
1!
#2016580
0!
#2017199
1!
#2017413
0!
#2018041
1!
#2018282
0!
#2018898
1!
#2019137
0!
#2019741
1!
#2019980
0!
#2020611
1!
#2021246
0!
#2021445
1!
#2021667
0!
#2022302
1!
#2022540
0!
#2023161
1!
#2023375
0!
#2024000
1!
#2024665
0!
#2024848
1!
#2025079
0!
#2025707
1!
#2025930
0!
#2031664
1!
#2031893
0!
#2032496
1!
#2033142
0!
#2033375
1!
#2033585
0!
#2034203
1!
#2034442
0!
#2035067
1!
#2035281
0!
#2035910
1!
#2036576
0!
#2036762
1!
#2037010
0!
#2037622
1!
#2037859
0!
#2038465
1!
#2039108
0!
#2039308
1!
#2039533
0!
#2040166
1!
#2040405
0!
#2041028
1!
#2041242
0!
#2041869
1!
#2042111
0!
#2042719
1!
#2042945
0!
#2043574
1!
#2043798
0!
#2044427
1!
#2044662
0!
#2045281
1!
#2045495
0!
#2046132
1!
#2046338
0!
#2046965
1!
#2047633
0!
#2047816
1!
#2048054
0!
#2048671
1!
#2048909
0!
#2049532
1!
#2049773
0!
#2050389
1!
#2051037
0!
#2051222
1!
#2051470
0!
#2052076
1!
#2052312
0!
#2058016
1!
#2058279
0!
#2058875
1!
#2059541
0!
#2059728
1!
#2059962
0!
#2060592
1!
#2060813
0!
#2061440
1!
#2061677
0!
#2062297
1!
#2062936
0!
#2063150
1!
#2063369
0!
#2063996
1!
#2064210
0!
#2064837
1!
#2065498
0!
#2065699
1!
#2065926
0!
#2066538
1!
#2066776
0!
#2067387
1!
#2067622
0!
#2068250
1!
#2068468
0!
#2069105
1!
#2069314
0!
#2069957
1!
#2070170
0!
#2070807
1!
#2071014
0!
#2071643
1!
#2071864
0!
#2072505
1!
#2072715
0!
#2073361
1!
#2073977
0!
#2074188
1!
#2074435
0!
#2075038
1!
#2075280
0!
#2075907
1!
#2076120
0!
#2076750
1!
#2077387
0!
#2077594
1!
#2077841
0!
#2078449
1!
#2078676
0!
#2084402
1!
#2084643
0!
#2085247
1!
#2085905
0!
#2086104
1!
#2086325
0!
#2086957
1!
#2087196
0!
#2087820
1!
#2088033
0!
#2088660
1!
#2089299
0!
#2089510
1!
#2089730
0!
#2090359
1!
#2090598
0!
#2091207
1!
#2091853
0!
#2092076
1!
#2092292
0!
#2092917
1!
#2093127
0!
#2093772
1!
#2093984
0!
#2094607
1!
#2094850
0!
#2095467
1!
#2095707
0!
#2096311
1!
#2096549
0!
#2097157
1!
#2097392
0!
#2098021
1!
#2098241
0!
#2098882
1!
#2099091
0!
#2099733
1!
#2100374
0!
#2100589
1!
#2100798
0!
#2101432
1!
#2101629
0!
#2102263
1!
#2102497
0!
#2103139
1!
#2103777
0!
#2103967
1!
#2104202
0!
#2104831
1!
#2105053
0!
#2110782
1!
#2110999
0!
#2111629
1!
#2112290
0!
#2112477
1!
#2112719
0!
#2113331
1!
#2113547
0!
#2114178
1!
#2114399
0!
#2115042
1!
#2115683
0!
#2115897
1!
#2116117
0!
#2116741
1!
#2116955
0!
#2117584
1!
#2118249
0!
#2118434
1!
#2118642
0!
#2119299
1!
#2119520
0!
#2120144
1!
#2120355
0!
#2121002
1!
#2121216
0!
#2121840
1!
#2122080
0!
#2122682
1!
#2122922
0!
#2123537
1!
#2123774
0!
#2124383
1!
#2124616
0!
#2125242
1!
#2125463
0!
#2126102
1!
#2126743
0!
#2126958
1!
#2127178
0!
#2127807
1!
#2128023
0!
#2128643
1!
#2128884
0!
#2129499
1!
#2130147
0!
#2130356
1!
#2130577
0!
#2131212
1!
#2131420
0!
#2137141
1!
#2137383
0!
#2138012
1!
#2138657
0!
#2138871
1!
#2139092
0!
#2139720
1!
#2139934
0!
#2140561
1!
#2140773
0!
#2141401
1!
#2142064
0!
#2142265
1!
#2142494
0!
#2143107
1!
#2143317
0!
#2143959
1!
#2144596
0!
#2144808
1!
#2145029
0!
#2145671
1!
#2145909
0!
#2146515
1!
#2146750
0!
#2147350
1!
#2147572
0!
#2148216
1!
#2148426
0!
#2149073
1!
#2149287
0!
#2149912
1!
#2150152
0!
#2150753
1!
#2150993
0!
#2151619
1!
#2151833
0!
#2152472
1!
#2153122
0!
#2153318
1!
#2153531
0!
#2154172
1!
#2154382
0!
#2155002
1!
#2155241
0!
#2155863
1!
#2156528
0!
#2156713
1!
#2156962
0!
#2157565
1!
#2157804
0!
#2163536
1!
#2163737
0!
#2164372
1!
#2165011
0!
#2165226
1!
#2165473
0!
#2166065
1!
#2166301
0!
#2166931
1!
#2167151
0!
#2167766
1!
#2168428
0!
#2168642
1!
#2168861
0!
#2169485
1!
#2169697
0!
#2170341
1!
#2170990
0!
#2171174
1!
#2171420
0!
#2172026
1!
#2172264
0!
#2172895
1!
#2173105
0!
#2173739
1!
#2173946
0!
#2174573
1!
#2174796
0!
#2175440
1!
#2175676
0!
#2176296
1!
#2176511
0!
#2177138
1!
#2177353
0!
#2177982
1!
#2178223
0!
#2178831
1!
#2179476
0!
#2179698
1!
#2179914
0!
#2180540
1!
#2180778
0!
#2181400
1!
#2181614
0!
#2182241
1!
#2182882
0!
#2183093
1!
#2183313
0!
#2183941
1!
#2184180
0!
#2189885
1!
#2190136
0!
#2190748
1!
#2191389
0!
#2191603
1!
#2191815
0!
#2192445
1!
#2192663
0!
#2193297
1!
#2193526
0!
#2194141
1!
#2194808
0!
#2194996
1!
#2195244
0!
#2195847
1!
#2196059
0!
#2196687
1!
#2197350
0!
#2197554
1!
#2197786
0!
#2198402
1!
#2198641
0!
#2199264
1!
#2199476
0!
#2200110
1!
#2200345
0!
#2200970
1!
#2201168
0!
#2201816
1!
#2202025
0!
#2202648
1!
#2202887
0!
#2203522
1!
#2203714
0!
#2204370
1!
#2204567
0!
#2205214
1!
#2205853
0!
#2206068
1!
#2206287
0!
#2206916
1!
#2207133
0!
#2207767
1!
#2208006
0!
#2208610
1!
#2209253
0!
#2209452
1!
#2209677
0!
#2210311
1!
#2210549
0!
#2216261
1!
#2216497
0!
#2217123
1!
#2217762
0!
#2217966
1!
#2218202
0!
#2218820
1!
#2219058
0!
#2219676
1!
#2219890
0!
#2220523
1!
#2221183
0!
#2221378
1!
#2221595
0!
#2222222
1!
#2222459
0!
#2223077
1!
#2223718
0!
#2223929
1!
#2224147
0!
#2224777
1!
#2225017
0!
#2225622
1!
#2225861
0!
#2226467
1!
#2226706
0!
#2227314
1!
#2227552
0!
#2228183
1!
#2228419
0!
#2229023
1!
#2229244
0!
#2229877
1!
#2230108
0!
#2230725
1!
#2230964
0!
#2231589
1!
#2232229
0!
#2232443
1!
#2232664
0!
#2233294
1!
#2233507
0!
#2234145
1!
#2234356
0!
#2234988
1!
#2235632
0!
#2235829
1!
#2236051
0!
#2236685
1!
#2236924
0!
#2242636
1!
#2242869
0!
#2243497
1!
#2244139
0!
#2244344
1!
#2244578
0!
#2245192
1!
#2245429
0!
#2246047
1!
#2246288
0!
#2246891
1!
#2247539
0!
#2247751
1!
#2247972
0!
#2248603
1!
#2248817
0!
#2249446
1!
#2250103
0!
#2250312
1!
#2250532
0!
#2251160
1!
#2251357
0!
#2251993
1!
#2252225
0!
#2252844
1!
#2253082
0!
#2253719
1!
#2253925
0!
#2254558
1!
#2254778
0!
#2255393
1!
#2255626
0!
#2256245
1!
#2256485
0!
#2257104
1!
#2257346
0!
#2257964
1!
#2258611
0!
#2258822
1!
#2259043
0!
#2259648
1!
#2259886
0!
#2260518
1!
#2260728
0!
#2261362
1!
#2262011
0!
#2262207
1!
#2262418
0!
#2263064
1!
#2263275
0!
#2269023
1!
#2269246
0!
#2269851
1!
#2270531
0!
#2270718
1!
#2270963
0!
#2271555
1!
#2271795
0!
#2272405
1!
#2272638
0!
#2273264
1!
#2273905
0!
#2274137
1!
#2274347
0!
#2274965
1!
#2275203
0!
#2275822
1!
#2276462
0!
#2276674
1!
#2276895
0!
#2277510
1!
#2277748
0!
#2278378
1!
#2278600
0!
#2279228
1!
#2279439
0!
#2280085
1!
#2280300
0!
#2280926
1!
#2281168
0!
#2281786
1!
#2282001
0!
#2282630
1!
#2282843
0!
#2283474
1!
#2283712
0!
#2284339
1!
#2284964
0!
#2285198
1!
#2285404
0!
#2286036
1!
#2286265
0!
#2286879
1!
#2287117
0!
#2287736
1!
#2288377
0!
#2288590
1!
#2288797
0!
#2289428
1!
#2289650
0!
#2295393
1!
#2295621
0!
#2296224
1!
#2296892
0!
#2297101
1!
#2297315
0!
#2297933
1!
#2298170
0!
#2298796
1!
#2299011
0!
#2299640
1!
#2300279
0!
#2300491
1!
#2300739
0!
#2301344
1!
#2301586
0!
#2302191
1!
#2302849
0!
#2303057
1!
#2303277
0!
#2303908
1!
#2304105
0!
#2304740
1!
#2304972
0!
#2305591
1!
#2305831
0!
#2306457
1!
#2306671
0!
#2307297
1!
#2307539
0!
#2308146
1!
#2308381
0!
#2309009
1!
#2309206
0!
#2309867
1!
#2310075
0!
#2310693
1!
#2311360
0!
#2311549
1!
#2311768
0!
#2312415
1!
#2312631
0!
#2313259
1!
#2313473
0!
#2314101
1!
#2314758
0!
#2314966
1!
#2315185
0!
#2315812
1!
#2316032
0!
#2321757
1!
#2321991
0!
#2322619
1!
#2323260
0!
#2323463
1!
#2323695
0!
#2324310
1!
#2324549
0!
#2325167
1!
#2325383
0!
#2326018
1!
#2326665
0!
#2326861
1!
#2327072
0!
#2327718
1!
#2327956
0!
#2328574
1!
#2329215
0!
#2329429
1!
#2329637
0!
#2330267
1!
#2330486
0!
#2331127
1!
#2331336
0!
#2331980
1!
#2332195
0!
#2332813
1!
#2333054
0!
#2333683
1!
#2333897
0!
#2334512
1!
#2334749
0!
#2335381
1!
#2335590
0!
#2336218
1!
#2336439
0!
#2337080
1!
#2337718
0!
#2337932
1!
#2338152
0!
#2338780
1!
#2338994
0!
#2339639
1!
#2339856
0!
#2340483
1!
#2341119
0!
#2341329
1!
#2341550
0!
#2342182
1!
#2342400
0!
#2348129
1!
#2348369
0!
#2348976
1!
#2349624
0!
#2349828
1!
#2350059
0!
#2350689
1!
#2350918
0!
#2351531
1!
#2351769
0!
#2352380
1!
#2353039
0!
#2353235
1!
#2353446
0!
#2354090
1!
#2354328
0!
#2354948
1!
#2355590
0!
#2355805
1!
#2356012
0!
#2356642
1!
#2356862
0!
#2357499
1!
#2357709
0!
#2358328
1!
#2358568
0!
#2359178
1!
#2359417
0!
#2360049
1!
#2360284
0!
#2360883
1!
#2361104
0!
#2361751
1!
#2361961
0!
#2362607
1!
#2362823
0!
#2363444
1!
#2364090
0!
#2364304
1!
#2364525
0!
#2365142
1!
#2365382
0!
#2365988
1!
#2366227
0!
#2366839
1!
#2367485
0!
#2367704
1!
#2367920
0!
#2368549
1!
#2368785
0!
#2374512
1!
#2374746
0!
#2375347
1!
#2376014
0!
#2376222
1!
#2376434
0!
#2377051
1!
#2377289
0!
#2377901
1!
#2378115
0!
#2378767
1!
#2379412
0!
#2379620
1!
#2379832
0!
#2380452
1!
#2380691
0!
#2381315
1!
#2381961
0!
#2382175
1!
#2382395
0!
#2383022
1!
#2383237
0!
#2383881
1!
#2384093
0!
#2384705
1!
#2384938
0!
#2385566
1!
#2385786
0!
#2386425
1!
#2386634
0!
#2387278
1!
#2387492
0!
#2388113
1!
#2388352
0!
#2388955
1!
#2389196
0!
#2389824
1!
#2390460
0!
#2390669
1!
#2390889
0!
#2391524
1!
#2391758
0!
#2392359
1!
#2392581
0!
#2393225
1!
#2393864
0!
#2394078
1!
#2394296
0!
#2394918
1!
#2395159
0!
#2400866
1!
#2401112
0!
#2401735
1!
#2402374
0!
#2402587
1!
#2402807
0!
#2403430
1!
#2403643
0!
#2404296
1!
#2404512
0!
#2405140
1!
#2405777
0!
#2405986
1!
#2406207
0!
#2406842
1!
#2407050
0!
#2407677
1!
#2408321
0!
#2408527
1!
#2408763
0!
#2409379
1!
#2409618
0!
#2410232
1!
#2410466
0!
#2411096
1!
#2411292
0!
#2411316
1!
#2411317
0!
#2411928
1!
#2412162
0!
#2412779
1!
#2413018
0!
#2413655
1!
#2413861
0!
#2414489
1!
#2414710
0!
#2415349
1!
#2415558
0!
#2416179
1!
#2416847
0!
#2417062
1!
#2417283
0!
#2417901
1!
#2418115
0!
#2418730
1!
#2418967
0!
#2419599
1!
#2420249
0!
#2420445
1!
#2420656
0!
#2421298
1!
#2421536
0!
#2427243
1!
#2427462
0!
#2428091
1!
#2428754
0!
#2428968
1!
#2429187
0!
#2429815
1!
#2430030
0!
#2430651
1!
#2430892
0!
#2431493
1!
#2432154
0!
#2432364
1!
#2432584
0!
#2433218
1!
#2433428
0!
#2434060
1!
#2434703
0!
#2434902
1!
#2435125
0!
#2435759
1!
#2435998
0!
#2436619
1!
#2436836
0!
#2437463
1!
#2437678
0!
#2438322
1!
#2438538
0!
#2439168
1!
#2439381
0!
#2440020
1!
#2440230
0!
#2440863
1!
#2441097
0!
#2441722
1!
#2441944
0!
#2442571
1!
#2443212
0!
#2443427
1!
#2443646
0!
#2444273
1!
#2444488
0!
#2445110
1!
#2445352
0!
#2445956
1!
#2446619
0!
#2446829
1!
#2447049
0!
#2447658
1!
#2447895
0!
#2453637
1!
#2453859
0!
#2454480
1!
#2455119
0!
#2455333
1!
#2455553
0!
#2456174
1!
#2456415
0!
#2457017
1!
#2457258
0!
#2457872
1!
#2458525
0!
#2458732
1!
#2458952
0!
#2459578
1!
#2459798
0!
#2460437
1!
#2461077
0!
#2461292
1!
#2461511
0!
#2462138
1!
#2462353
0!
#2462980
1!
#2463222
0!
#2463839
1!
#2464051
0!
#2464680
1!
#2464920
0!
#2465525
1!
#2465763
0!
#2466394
1!
#2466609
0!
#2467240
1!
#2467462
0!
#2468091
1!
#2468328
0!
#2468948
1!
#2469591
0!
#2469805
1!
#2470025
0!
#2470643
1!
#2470884
0!
#2471492
1!
#2471708
0!
#2472336
1!
#2472986
0!
#2473196
1!
#2473411
0!
#2474056
1!
#2474270
0!
#2480006
1!
#2480223
0!
#2480839
1!
#2481501
0!
#2481716
1!
#2481928
0!
#2482535
1!
#2482760
0!
#2483413
1!
#2483614
0!
#2484249
1!
#2484890
0!
#2485104
1!
#2485325
0!
#2485954
1!
#2486195
0!
#2486804
1!
#2487464
0!
#2487648
1!
#2487897
0!
#2488502
1!
#2488739
0!
#2489345
1!
#2489583
0!
#2490213
1!
#2490431
0!
#2491060
1!
#2491290
0!
#2491906
1!
#2492145
0!
#2492769
1!
#2492982
0!
#2493608
1!
#2493847
0!
#2494449
1!
#2494690
0!
#2495318
1!
#2495966
0!
#2496178
1!
#2496399
0!
#2497004
1!
#2497242
0!
#2497876
1!
#2498086
0!
#2498714
1!
#2499381
0!
#2499561
1!
#2499798
0!
#2500413
1!
#2500652
0!
#2506374
1!
#2506593
0!
#2507206
1!
#2507871
0!
#2508085
1!
#2508304
0!
#2508932
1!
#2509146
0!
#2509764
1!
#2510004
0!
#2510634
1!
#2511271
0!
#2511481
1!
#2511701
0!
#2512336
1!
#2512547
0!
#2513180
1!
#2513826
0!
#2514022
1!
#2514236
0!
#2514881
1!
#2515119
0!
#2515739
1!
#2515954
0!
#2516574
1!
#2516815
0!
#2517418
1!
#2517659
0!
#2518276
1!
#2518515
0!
#2519120
1!
#2519358
0!
#2519990
1!
#2520225
0!
#2520823
1!
#2521044
0!
#2521692
1!
#2522332
0!
#2522547
1!
#2522767
0!
#2523389
1!
#2523604
0!
#2524231
1!
#2524473
0!
#2525078
1!
#2525738
0!
#2525936
1!
#2526155
0!
#2526786
1!
#2527023
0!
#2532741
1!
#2532962
0!
#2533592
1!
#2534252
0!
#2534440
1!
#2534685
0!
#2535308
1!
#2535523
0!
#2536161
1!
#2536368
0!
#2536994
1!
#2537635
0!
#2537841
1!
#2538078
0!
#2538692
1!
#2538931
0!
#2539543
1!
#2540200
0!
#2540396
1!
#2540607
0!
#2541252
1!
#2541489
0!
#2542110
1!
#2542325
0!
#2542951
1!
#2543192
0!
#2543810
1!
#2544024
0!
#2544653
1!
#2544894
0!
#2545498
1!
#2545736
0!
#2546346
1!
#2546580
0!
#2547209
1!
#2547430
0!
#2548042
1!
#2548704
0!
#2548919
1!
#2549138
0!
#2549767
1!
#2549982
0!
#2550610
1!
#2550852
0!
#2551453
1!
#2552118
0!
#2552302
1!
#2552551
0!
#2553164
1!
#2553401
0!
#2559109
1!
#2559340
0!
#2559957
1!
#2560604
0!
#2560818
1!
#2561038
0!
#2561658
1!
#2561900
0!
#2562515
1!
#2562755
0!
#2563367
1!
#2564013
0!
#2564209
1!
#2564447
0!
#2565069
1!
#2565306
0!
#2565930
1!
#2566575
0!
#2566764
1!
#2567012
0!
#2567615
1!
#2567854
0!
#2568459
1!
#2568677
0!
#2569330
1!
#2569533
0!
#2570170
1!
#2570409
0!
#2571027
1!
#2571241
0!
#2571870
1!
#2572110
0!
#2572712
1!
#2572954
0!
#2573583
1!
#2573797
0!
#2574425
1!
#2575083
0!
#2575266
1!
#2575514
0!
#2576123
1!
#2576358
0!
#2576988
1!
#2577185
0!
#2577841
1!
#2578479
0!
#2578694
1!
#2578913
0!
#2579534
1!
#2579773
0!
#2585484
1!
#2585707
0!
#2586336
1!
#2586994
0!
#2587181
1!
#2587427
0!
#2588024
1!
#2588265
0!
#2588891
1!
#2589106
0!
#2589733
1!
#2590397
0!
#2590582
1!
#2590813
0!
#2591444
1!
#2591667
0!
#2592293
1!
#2592936
0!
#2593150
1!
#2593363
0!
#2593993
1!
#2594211
0!
#2594842
1!
#2595072
0!
#2595687
1!
#2595926
0!
#2596540
1!
#2596780
0!
#2597386
1!
#2597625
0!
#2598236
1!
#2598471
0!
#2599098
1!
#2599319
0!
#2599954
1!
#2600164
0!
#2600786
1!
#2601452
0!
#2601640
1!
#2601888
0!
#2602490
1!
#2602732
0!
#2603335
1!
#2603576
0!
#2604191
1!
#2604844
0!
#2605052
1!
#2605271
0!
#2605900
1!
#2606121
0!
#2611852
1!
#2612068
0!
#2612695
1!
#2613346
0!
#2613557
1!
#2613772
0!
#2614393
1!
#2614632
0!
#2615242
1!
#2615474
0!
#2616101
1!
#2616743
0!
#2616949
1!
#2617185
0!
#2617802
1!
#2618039
0!
#2618664
1!
#2619306
0!
#2619520
1!
#2619740
0!
#2620370
1!
#2620585
0!
#2621214
1!
#2621428
0!
#2622067
1!
#2622279
0!
#2622913
1!
#2623150
0!
#2623757
1!
#2623977
0!
#2624609
1!
#2624840
0!
#2625457
1!
#2625696
0!
#2626320
1!
#2626535
0!
#2627156
1!
#2627820
0!
#2628031
1!
#2628252
0!
#2628859
1!
#2629098
0!
#2629704
1!
#2629941
0!
#2630575
1!
#2631216
0!
#2631413
1!
#2631634
0!
#2632267
1!
#2632503
0!
#2638210
1!
#2638454
0!
#2639063
1!
#2639725
0!
#2639939
1!
#2640158
0!
#2640785
1!
#2640998
0!
#2641618
1!
#2641860
0!
#2642476
1!
#2643135
0!
#2643332
1!
#2643542
0!
#2644181
1!
#2644389
0!
#2645035
1!
#2645676
0!
#2645890
1!
#2646111
0!
#2646716
1!
#2646956
0!
#2647585
1!
#2647799
0!
#2648428
1!
#2648650
0!
#2649282
1!
#2649513
0!
#2650124
1!
#2650364
0!
#2650976
1!
#2651211
0!
#2651841
1!
#2652038
0!
#2652670
1!
#2652904
0!
#2653547
1!
#2654187
0!
#2654376
1!
#2654610
0!
#2655241
1!
#2655463
0!
#2656086
1!
#2656321
0!
#2656938
1!
#2657574
0!
#2657782
1!
#2658003
0!
#2658633
1!
#2658851
0!
#2664593
1!
#2664808
0!
#2665449
1!
#2666099
0!
#2666308
1!
#2666529
0!
#2667133
1!
#2667354
0!
#2667987
1!
#2668219
0!
#2668834
1!
#2669501
0!
#2669689
1!
#2669937
0!
#2670538
1!
#2670779
0!
#2671386
1!
#2672056
0!
#2672252
1!
#2672469
0!
#2673097
1!
#2673334
0!
#2673956
1!
#2674170
0!
#2674878
1!
#2675014
0!
#2675641
1!
#2675861
0!
#2676506
1!
#2676715
0!
#2677357
1!
#2677571
0!
#2678207
1!
#2678417
0!
#2679050
1!
#2679286
0!
#2679891
1!
#2680558
0!
#2680759
1!
#2680987
0!
#2681597
1!
#2681833
0!
#2682445
1!
#2682678
0!
#2683306
1!
#2683945
0!
#2684150
1!
#2684383
0!
#2684998
1!
#2685237
0!
#2690963
1!
#2691182
0!
#2691794
1!
#2692460
0!
#2692647
1!
#2692892
0!
#2693513
1!
#2693727
0!
#2694355
1!
#2694597
0!
#2695201
1!
#2695849
0!
#2696061
1!
#2696282
0!
#2696921
1!
#2697132
0!
#2697762
1!
#2698422
0!
#2698617
1!
#2698833
0!
#2699462
1!
#2699701
0!
#2700296
1!
#2700561
0!
#2701151
1!
#2701390
0!
#2702018
1!
#2702259
0!
#2702863
1!
#2703102
0!
#2703713
1!
#2703948
0!
#2704575
1!
#2704793
0!
#2705426
1!
#2705635
0!
#2706255
1!
#2706925
0!
#2707114
1!
#2707325
0!
#2707957
1!
#2708177
0!
#2708809
1!
#2709041
0!
#2709658
1!
#2710323
0!
#2710511
1!
#2710745
0!
#2711376
1!
#2711598
0!
#2717307
1!
#2717541
0!
#2718166
1!
#2718811
0!
#2719017
1!
#2719258
0!
#2719874
1!
#2720111
0!
#2720730
1!
#2720970
0!
#2721578
1!
#2722213
0!
#2722433
1!
#2722649
0!
#2723276
1!
#2723515
0!
#2724130
1!
#2724790
0!
#2724970
1!
#2725203
0!
#2725835
1!
#2726064
0!
#2726679
1!
#2726917
0!
#2727538
1!
#2727751
0!
#2728387
1!
#2728602
0!
#2729229
1!
#2729453
0!
#2730082
1!
#2730319
0!
#2730936
1!
#2731150
0!
#2731786
1!
#2732022
0!
#2732627
1!
#2733294
0!
#2733494
1!
#2733695
0!
#2734332
1!
#2734570
0!
#2735191
1!
#2735406
0!
#2736032
1!
#2736696
0!
#2736879
1!
#2737128
0!
#2737732
1!
#2737971
0!
#2743688
1!
#2743920
0!
#2744537
1!
#2745199
0!
#2745388
1!
#2745623
0!
#2746257
1!
#2746454
0!
#2747088
1!
#2747322
0!
#2747938
1!
#2748604
0!
#2748792
1!
#2749012
0!
#2749644
1!
#2749883
0!
#2750510
1!
#2751147
0!
#2751357
1!
#2751577
0!
#2752209
1!
#2752426
0!
#2753059
1!
#2753264
0!
#2753903
1!
#2754139
0!
#2754754
1!
#2754968
0!
#2755604
1!
#2755830
0!
#2756459
1!
#2756682
0!
#2757307
1!
#2757545
0!
#2758160
1!
#2758375
0!
#2759011
1!
#2759660
0!
#2759856
1!
#2760067
0!
#2760711
1!
#2760947
0!
#2761545
1!
#2761783
0!
#2762410
1!
#2763051
0!
#2763264
1!
#2763482
0!
#2764098
1!
#2764332
0!
#2770069
1!
#2770298
0!
#2770914
1!
#2771555
0!
#2771770
1!
#2771990
0!
#2772620
1!
#2772835
0!
#2773468
1!
#2773684
0!
#2774314
1!
#2774966
0!
#2775176
1!
#2775391
0!
#2776012
1!
#2776252
0!
#2776863
1!
#2777518
0!
#2777726
1!
#2777945
0!
#2778572
1!
#2778800
0!
#2779431
1!
#2779639
0!
#2780262
1!
#2780502
0!
#2781123
1!
#2781365
0!
#2781968
1!
#2782210
0!
#2782814
1!
#2783032
0!
#2783685
1!
#2783888
0!
#2784525
1!
#2784762
0!
#2785381
1!
#2786021
0!
#2786234
1!
#2786455
0!
#2787071
1!
#2787310
0!
#2787942
1!
#2788153
0!
#2788787
1!
#2789429
0!
#2789627
1!
#2789847
0!
#2790480
1!
#2790718
0!
#2796438
1!
#2796673
0!
#2797273
1!
#2797940
0!
#2798148
1!
#2798361
0!
#2798982
1!
#2799221
0!
#2799842
1!
#2800056
0!
#2800684
1!
#2801349
0!
#2801534
1!
#2801765
0!
#2802392
1!
#2802615
0!
#2803243
1!
#2803884
0!
#2804098
1!
#2804317
0!
#2804938
1!
#2805180
0!
#2805782
1!
#2806023
0!
#2806654
1!
#2806863
0!
#2807491
1!
#2807712
0!
#2808353
1!
#2808562
0!
#2809208
1!
#2809423
0!
#2810043
1!
#2810285
0!
#2810904
1!
#2811118
0!
#2811758
1!
#2812385
0!
#2812591
1!
#2812825
0!
#2813454
1!
#2813682
0!
#2814295
1!
#2814534
0!
#2815153
1!
#2815800
0!
#2816014
1!
#2816235
0!
#2816863
1!
#2817078
0!
#2822800
1!
#2823024
0!
#2823658
1!
#2824299
0!
#2824514
1!
#2824734
0!
#2825356
1!
#2825598
0!
#2826215
1!
#2826430
0!
#2827071
1!
#2827697
0!
#2827904
1!
#2828138
0!
#2828767
1!
#2828996
0!
#2829609
1!
#2830251
0!
#2830466
1!
#2830687
0!
#2831310
1!
#2831552
0!
#2832168
1!
#2832381
0!
#2833013
1!
#2833252
0!
#2833857
1!
#2834096
0!
#2834728
1!
#2834940
0!
#2835573
1!
#2835808
0!
#2836407
1!
#2836628
0!
#2837272
1!
#2837509
0!
#2838130
1!
#2838772
0!
#2838987
1!
#2839194
0!
#2839827
1!
#2840047
0!
#2840658
1!
#2840892
0!
#2841510
1!
#2842176
0!
#2842364
1!
#2842596
0!
#2843227
1!
#2843449
0!
#2849171
1!
#2849408
0!
#2850033
1!
#2850671
0!
#2850876
1!
#2851111
0!
#2851729
1!
#2851968
0!
#2852588
1!
#2852802
0!
#2853429
1!
#2854068
0!
#2854279
1!
#2854486
0!
#2855140
1!
#2855361
0!
#2855985
1!
#2856626
0!
#2856841
1!
#2857053
0!
#2857685
1!
#2857906
0!
#2858538
1!
#2858768
0!
#2859382
1!
#2859621
0!
#2860232
1!
#2860446
0!
#2861101
1!
#2861297
0!
#2861943
1!
#2862154
0!
#2862776
1!
#2863015
0!
#2863642
1!
#2863855
0!
#2864483
1!
#2865148
0!
#2865332
1!
#2865563
0!
#2866192
1!
#2866414
0!
#2867043
1!
#2867280
0!
#2867897
1!
#2868537
0!
#2868750
1!
#2868960
0!
#2869590
1!
#2869814
0!
#2875544
1!
#2875779
0!
#2876382
1!
#2877049
0!
#2877252
1!
#2877485
0!
#2878101
1!
#2878339
0!
#2878959
1!
#2879202
0!
#2879793
1!
#2880458
0!
#2880668
1!
#2880889
0!
#2881498
1!
#2881715
0!
#2882343
1!
#2882992
0!
#2883204
1!
#2883422
0!
#2884046
1!
#2884286
0!
#2884899
1!
