doc/call_td157-274-1.vcd
$comment Call Retekess TD157, Keyboard 274, Pager 1 $end
$timescale 1us $end
$var wire 1 ! RX $end
$enddefinitions $end
#2316
0!
#1267783
1!
#1268040
0!
#1268669
1!
#1269317
0!
#1269525
1!
#1269739
0!
#1270357
1!
#1270596
0!
#1271207
1!
#1271446
0!
#1272057
1!
#1272701
0!
#1272923
1!
#1273140
0!
#1273766
1!
#1274003
0!
#1274622
1!
#1275263
0!
#1275477
1!
#1275684
0!
#1276312
1!
#1276532
0!
#1277177
1!
#1277387
0!
#1278006
1!
#1278246
0!
#1278885
1!
#1279091
0!
#1279718
1!
#1279938
0!
#1280580
1!
#1280790
0!
#1281435
1!
#1281650
0!
#1282276
1!
#1282490
0!
#1283136
1!
#1283351
0!
#1283980
1!
#1284628
0!
#1284840
1!
#1285060
0!
#1285672
1!
#1285905
0!
#1286533
1!
#1287174
0!
#1287377
1!
#1287610
0!
#1288225
1!
#1288462
0!
#1294182
1!
#1294402
0!
#1295034
1!
#1295694
0!
#1295881
1!
#1296126
0!
#1296749
1!
#1296964
0!
#1297585
1!
#1297827
0!
#1298443
1!
#1299078
0!
#1299286
1!
#1299533
0!
#1300141
1!
#1300377
0!
#1300981
1!
#1301646
0!
#1301846
1!
#1302075
0!
#1302688
1!
#1302926
0!
#1303545
1!
#1303786
0!
#1304392
1!
#1304609
0!
#1305238
1!
#1305463
0!
#1306097
1!
#1306333
0!
#1306952
1!
#1307166
0!
#1307803
1!
#1308008
0!
#1308660
1!
#1308857
0!
#1309504
1!
#1309714
0!
#1310358
1!
#1310998
0!
#1311212
1!
#1311420
0!
#1312055
1!
#1312276
0!
#1312891
1!
#1313552
0!
#1313766
1!
#1313985
0!
#1314586
1!
#1314825
0!
#1320552
1!
#1320772
0!
#1321402
1!
#1322062
0!
#1322249
1!
#1322493
0!
#1323105
1!
#1323340
0!
#1323968
1!
#1324186
0!
#1324822
1!
#1325460
0!
#1325675
1!
#1325890
0!
#1326519
1!
#1326741
0!
#1327370
1!
#1328022
0!
#1328209
1!
#1328426
0!
#1329075
1!
#1329290
0!
#1329910
1!
#1330152
0!
#1330754
1!
#1330994
0!
#1331620
1!
#1331833
0!
#1332474
1!
#1332683
0!
#1333315
1!
#1333549
0!
#1334175
1!
#1334396
0!
#1335022
1!
#1335259
0!
#1335878
1!
#1336092
0!
#1336713
1!
#1337362
0!
#1337574
1!
#1337794
0!
#1338437
1!
#1338647
0!
#1339276
1!
#1339923
0!
#1340119
1!
#1340331
0!
#1340977
1!
#1341214
0!
#1346928
1!
#1347163
0!
#1347787
1!
#1348432
0!
#1348641
1!
#1348852
0!
#1349470
1!
#1349708
0!
#1350332
1!
#1350573
0!
#1351181
1!
#1351827
0!
#1352023
1!
#1352260
0!
#1352883
1!
#1353121
0!
#1353739
1!
#1354379
0!
#1354592
1!
#1354813
0!
#1355427
1!
#1355664
0!
#1356295
1!
#1356516
0!
#1357140
1!
#1357378
0!
#1357999
1!
#1358215
0!
#1358835
1!
#1359077
0!
#1359679
1!
#1359922
0!
#1360525
1!
#1360766
0!
#1361396
1!
#1361610
0!
#1362252
1!
#1362463
0!
#1363097
1!
#1363740
0!
#1363938
1!
#1364158
0!
#1364791
1!
#1365029
0!
#1365653
1!
#1366297
0!
#1366512
1!
#1366733
0!
#1367351
1!
#1367566
0!
#1373300
1!
#1373522
0!
#1374150
1!
#1374791
0!
#1375005
1!
#1375225
0!
#1375846
1!
#1376088
0!
#1376703
1!
#1376916
0!
#1377546
1!
#1378199
0!
#1378394
1!
#1378628
0!
#1379265
1!
#1379473
0!
#1380118
1!
#1380758
0!
#1380974
1!
#1381195
0!
#1381798
1!
#1382039
0!
#1382666
1!
#1382881
0!
#1383521
1!
#1383733
0!
#1384367
1!
#1384575
0!
#1385200
1!
#1385421
0!
#1386064
1!
#1386274
0!
#1386919
1!
#1387133
0!
#1387752
1!
#1387993
0!
#1388621
1!
#1388836
0!
#1389476
1!
#1390098
0!
#1390305
1!
#1390553
0!
#1391158
1!
#1391379
0!
#1392010
1!
#1392669
0!
#1392884
1!
#1393102
0!
#1393723
1!
#1393939
0!
#1399659
1!
#1399877
0!
#1400534
1!
#1401172
0!
#1401386
1!
#1401605
0!
#1402231
1!
#1402445
0!
#1403072
1!
#1403313
0!
#1403914
1!
#1404580
0!
#1404791
1!
#1405012
0!
#1405624
1!
#1405861
0!
#1406468
1!
#1407113
0!
#1407310
1!
#1407549
0!
#1408176
1!
#1408414
0!
#1409034
1!
#1409249
0!
#1409892
1!
#1410103
0!
#1410734
1!
#1410953
0!
#1411590
1!
#1411799
0!
#1412419
1!
#1412658
0!
#1413284
1!
#1413499
0!
#1414143
1!
#1414360
0!
#1414976
1!
#1415215
0!
#1415821
1!
#1416475
0!
#1416683
1!
#1416929
0!
#1417527
1!
#1417748
0!
#1418391
1!
#1419030
0!
#1419245
1!
#1419465
0!
#1420093
1!
#1420308
0!
#1426034
1!
#1426252
0!
#1426884
1!
#1427545
0!
#1427760
1!
#1427979
0!
#1428604
1!
#1428819
0!
#1429437
1!
#1429678
0!
#1430295
1!
#1430953
0!
#1431162
1!
#1431382
0!
#1431987
1!
#1432208
0!
#1432839
1!
#1433499
0!
#1433713
1!
#1433932
0!
#1434557
1!
#1434771
0!
#1435397
1!
#1435639
0!
#1436242
1!
#1436483
0!
#1437111
1!
#1437327
0!
#1437957
1!
#1438171
0!
#1438812
1!
#1439022
0!
#1439655
1!
#1439890
0!
#1440492
1!
#1440713
0!
#1441360
1!
#1441570
0!
#1442215
1!
#1442857
0!
#1443072
1!
#1443293
0!
#1443895
1!
#1444137
0!
#1444765
1!
#1445402
0!
#1445611
1!
#1445832
0!
#1446467
1!
#1446676
0!
#1452420
1!
#1452636
0!
#1453264
1!
#1453913
0!
#1454128
1!
#1454349
0!
#1454954
1!
#1455195
0!
#1455811
1!
#1456051
0!
#1456657
1!
#1457312
0!
#1457519
1!
#1457739
0!
#1458366
1!
#1458620
0!
#1459226
1!
#1459866
0!
#1460081
1!
#1460300
0!
#1460923
1!
#1461138
0!
#1461765
1!
#1462007
0!
#1462610
1!
#1462851
0!
#1463467
1!
#1463706
0!
#1464316
1!
#1464551
0!
#1465179
1!
#1465400
0!
#1466036
1!
#1466245
0!
#1466865
1!
#1467104
0!
#1467724
1!
#1467966
0!
#1468569
1!
#1469235
0!
#1469419
1!
#1469668
0!
#1470273
1!
#1470515
0!
#1471118
1!
#1471772
0!
#1471978
1!
#1472197
0!
#1472823
1!
#1473044
0!
#1478775
1!
#1479015
0!
#1479642
1!
#1480272
0!
#1480485
1!
#1480730
0!
#1481329
1!
#1481569
0!
#1482180
1!
#1482419
0!
#1483029
1!
#1483698
0!
#1483893
1!
#1484109
0!
#1484738
1!
#1484976
0!
#1485600
1!
#1486243
0!
#1486459
1!
#1486680
0!
#1487298
1!
#1487515
0!
#1488141
1!
#1488353
0!
#1488991
1!
#1489226
0!
#1489854
1!
#1490050
0!
#1490709
1!
#1490916
0!
#1491537
1!
#1491775
0!
#1492400
1!
#1492614
0!
#1493248
1!
#1493464
0!
#1494092
1!
#1494316
0!
#1494947
1!
#1495587
0!
#1495801
1!
#1496015
0!
#1496643
1!
#1496864
0!
#1497495
1!
#1498154
0!
#1498370
1!
#1498589
0!
#1499209
1!
#1499424
0!
#1505168
1!
#1505364
0!
#1505996
1!
#1506659
0!
#1506875
1!
#1507094
0!
#1507695
1!
#1507934
0!
#1508555
1!
#1508795
0!
#1509411
1!
#1510046
0!
#1510253
1!
#1510502
0!
#1511110
1!
#1511346
0!
#1511948
1!
#1512610
0!
#1512813
1!
#1513045
0!
#1513660
1!
#1513898
0!
#1514524
1!
#1514741
0!
#1515367
1!
#1515582
0!
#1516208
1!
#1516450
0!
#1517065
1!
#1517279
0!
#1517909
1!
#1518148
0!
#1518783
1!
#1518991
0!
#1519619
1!
#1519839
0!
#1520477
1!
#1520686
0!
#1521330
1!
#1521971
0!
#1522186
1!
#1522406
0!
#1523034
1!
#1523244
0!
#1523874
1!
#1524514
0!
#1524718
1!
#1524952
0!
#1525567
1!
#1525806
0!
#1531522
1!
#1531741
0!
#1532373
1!
#1533031
0!
#1533246
1!
#1533465
0!
#1534066
1!
#1534307
0!
#1534929
1!
#1535172
0!
#1535775
1!
#1536440
0!
#1536625
1!
#1536874
0!
#1537479
1!
#1537719
0!
#1538324
1!
#1538977
0!
#1539183
1!
#1539402
0!
#1540030
1!
#1540251
0!
#1540893
1!
#1541102
0!
#1541747
1!
#1541961
0!
#1542587
1!
#1542801
0!
#1543429
1!
#1543671
0!
#1544277
1!
#1544494
0!
#1545147
1!
#1545349
0!
#1545986
1!
#1546225
0!
#1546848
1!
#1547062
0!
#1547689
1!
#1548328
0!
#1548541
1!
#1548762
0!
#1549403
1!
#1549614
0!
#1550247
1!
#1550894
0!
#1551090
1!
#1551302
0!
#1551946
1!
#1552182
0!
#1557909
1!
#1558117
0!
#1558744
1!
#1559409
0!
#1559591
1!
#1559829
0!
#1560448
1!
#1560686
0!
#1561311
1!
#1561526
0!
#1562162
1!
#1562812
0!
#1563008
1!
#1563217
0!
#1563859
1!
#1564070
0!
#1564718
1!
#1565360
0!
#1565549
1!
#1565760
0!
#1566416
1!
#1566612
0!
#1567248
1!
#1567480
0!
#1568097
1!
#1568336
0!
#1568974
1!
#1569180
0!
#1569809
1!
#1570030
0!
#1570669
1!
#1570878
0!
#1571522
1!
#1571736
0!
#1572371
1!
#1572586
0!
#1573217
1!
#1573439
0!
#1574065
1!
#1574704
0!
#1574919
1!
#1575140
0!
#1575761
1!
#1576003
0!
#1576605
1!
#1577270
0!
#1577481
1!
#1577702
0!
#1578314
1!
#1578549
0!
#1584262
1!
#1584501
0!
#1585126
1!
#1585768
0!
#1585982
1!
#1586189
0!
#1586819
1!
#1587040
0!
#1587682
1!
#1587892
0!
#1588535
1!
#1589175
0!
#1589390
1!
#1589596
0!
#1590227
1!
#1590447
0!
#1591086
1!
#1591724
0!
#1591938
1!
#1592150
0!
#1592781
1!
#1592999
0!
#1593630
1!
#1593859
0!
#1594473
1!
#1594712
0!
#1595330
1!
#1595572
0!
#1596180
1!
#1596396
0!
#1597023
1!
#1597248
0!
#1597882
1!
#1598119
0!
#1598740
1!
#1598954
0!
#1599590
1!
#1599795
0!
#1600424
1!
#1601068
0!
#1601301
1!
#1601512
0!
#1602129
1!
#1602368
0!
#1602980
1!
#1603640
0!
#1603836
1!
#1604047
0!
#1604691
1!
#1604901
0!
#1610631
1!
#1610850
0!
#1611483
1!
#1612144
0!
#1612359
1!
#1612548
0!
#1613204
1!
#1613404
0!
#1614056
1!
#1614259
0!
#1614897
1!
#1615538
0!
#1615752
1!
#1615972
0!
#1616601
1!
#1616816
0!
#1617462
1!
#1618086
0!
#1618297
1!
#1618518
0!
#1619149
1!
#1619390
0!
#1619999
1!
#1620235
0!
#1620862
1!
#1621059
0!
#1621719
1!
#1621927
0!
#1622546
1!
#1622785
0!
#1623405
1!
#1623647
0!
#1624248
1!
#1624489
0!
#1625095
1!
#1625329
0!
#1625956
1!
#1626177
0!
#1626815
1!
#1627453
0!
#1627667
1!
#1627890
0!
#1628514
1!
#1628729
0!
#1629355
1!
#1629995
0!
#1630233
1!
#1630454
0!
#1631059
1!
#1631299
0!
#1637017
1!
#1637239
0!
#1637869
1!
#1638510
0!
#1638724
1!
#1638944
0!
#1639566
1!
#1639808
0!
#1640423
1!
#1640637
0!
#1641277
1!
#1641925
0!
#1642134
1!
#1642354
0!
#1642983
1!
#1643179
0!
#1643813
1!
#1644475
0!
#1644690
1!
#1644909
0!
#1645531
1!
#1645746
0!
#1646373
1!
#1646616
0!
#1647219
1!
#1647461
0!
#1648064
1!
#1648306
0!
#1648936
1!
#1649162
0!
#1649774
1!
#1650012
0!
#1650631
1!
#1650846
0!
#1651479
1!
#1651696
0!
#1652325
1!
#1652549
0!
#1653182
1!
#1653822
0!
#1654037
1!
#1654257
0!
#1654878
1!
#1655120
0!
#1655737
1!
#1656390
0!
#1656592
1!
#1656800
0!
#1657430
1!
#1657655
0!
#1663390
1!
#1663614
0!
#1664242
1!
#1664890
0!
#1665100
1!
#1665314
0!
#1665932
1!
#1666171
0!
#1666807
1!
#1667022
0!
#1667652
1!
#1668298
0!
#1668507
1!
#1668720
0!
#1669362
1!
#1669576
0!
#1670212
1!
#1670847
0!
#1671044
1!
#1671257
0!
#1671901
1!
#1672112
0!
#1672757
1!
#1672971
0!
#1673606
1!
#1673822
0!
#1674453
1!
#1674676
0!
#1675304
1!
#1675541
0!
#1676158
1!
#1676373
0!
#1677007
1!
#1677223
0!
#1677853
1!
#1678077
0!
#1678704
1!
#1678941
0!
#1679559
1!
#1680198
0!
#1680410
1!
#1680619
0!
#1681250
1!
#1681471
0!
#1682114
1!
#1682752
0!
#1682966
1!
#1683184
0!
#1683811
1!
#1684025
0!
#1689774
1!
#1689994
0!
#1690605
1!
#1691267
0!
#1691482
1!
#1691701
0!
#1692322
1!
#1692538
0!
#1693158
1!
#1693400
0!
#1694015
1!
#1694672
0!
#1694881
1!
#1695101
0!
#1695727
1!
#1695946
0!
#1696583
1!
#1697221
0!
#1697436
1!
#1697655
0!
#1698281
1!
#1698496
0!
#1699116
1!
#1699357
0!
#1699984
1!
#1700199
0!
#1700827
1!
#1701041
0!
#1701670
1!
#1701910
0!
#1702541
1!
#1702752
0!
#1703385
1!
#1703593
0!
#1704219
1!
#1704441
0!
#1705083
1!
#1705293
0!
#1705940
1!
#1706588
0!
#1706796
1!
#1707017
0!
#1707635
1!
#1707849
0!
#1708489
1!
#1709136
0!
#1709344
1!
#1709563
0!
#1710193
1!
#1710390
0!
#1716147
1!
#1716357
0!
#1716990
1!
#1717630
0!
#1717829
1!
#1718078
0!
#1718690
1!
#1718927
0!
#1719552
1!
#1719766
0!
#1720393
1!
#1721033
0!
#1721246
1!
#1721467
0!
#1722099
1!
#1722312
0!
#1722953
1!
#1723602
0!
#1723797
1!
#1724008
0!
#1724650
1!
#1724888
0!
#1725508
1!
#1725722
0!
#1726349
1!
#1726591
0!
#1727210
1!
#1727425
0!
#1728056
1!
#1728270
0!
#1728901
1!
#1729140
0!
#1729744
1!
#1729977
0!
#1730605
1!
#1730826
0!
#1731466
1!
#1731675
0!
#1732295
1!
#1732960
0!
#1733148
1!
#1733359
0!
#1734015
1!
#1734234
0!
#1734869
1!
#1735506
0!
#1735721
1!
#1735940
0!
#1736567
1!
#1736781
0!
#1742499
1!
#1742743
0!
#1743375
1!
#1744015
0!
#1744228
1!
#1744448
0!
#1745073
1!
#1745288
0!
#1745915
1!
#1746156
0!
#1746758
1!
#1747422
0!
#1747633
1!
#1747854
0!
#1748464
1!
#1748682
0!
#1749310
1!
#1749961
0!
#1750172
1!
#1750388
0!
#1751009
1!
#1751249
0!
#1751869
1!
#1752110
0!
#1752727
1!
#1752941
0!
#1753570
1!
#1753809
0!
#1754414
1!
#1754653
0!
#1755287
1!
#1755495
0!
#1756122
1!
#1756342
0!
#1756983
1!
#1757219
0!
#1757839
1!
#1758055
0!
#1758681
1!
#1759328
0!
#1759542
1!
#1759763
0!
#1760381
1!
#1760622
0!
#1761232
1!
#1761866
0!
#1762087
1!
#1762304
0!
#1762933
1!
#1763171
0!
#1768873
1!
#1769107
0!
#1769735
1!
#1770401
0!
#1770589
1!
#1770818
0!
#1771436
1!
#1771675
0!
#1772301
1!
#1772517
0!
#1773143
1!
#1773789
0!
#1774003
1!
#1774224
0!
#1774840
1!
#1775079
0!
#1775684
1!
#1776340
0!
#1776547
1!
#1776767
0!
#1777395
1!
#1777615
0!
#1778257
1!
#1778465
0!
#1779086
1!
#1779600
0!
#1779946
1!
#1780187
0!
#1780802
1!
#1781015
0!
#1781653
1!
#1781889
0!
#1782493
1!
#1782715
0!
#1783346
1!
#1783577
0!
#1784193
1!
#1784432
0!
#1785058
1!
#1785698
0!
#1785911
1!
#1786132
0!
#1786749
1!
#1786988
0!
#1787619
1!
#1788267
0!
#1788449
1!
#1788696
0!
#1789302
1!
#1789524
0!
#1795263
1!
#1795474
0!
#1796102
1!
#1796770
0!
#1796978
1!
#1797190
0!
#1797808
1!
#1798047
0!
#1798658
1!
#1798897
0!
#1799506
1!
#1800176
0!
#1800372
1!
#1800588
0!
#1801214
1!
#1801453
0!
#1802077
1!
#1802722
0!
#1802911
1!
#1803158
0!
#1803776
1!
#1803990
0!
#1804618
1!
#1804837
0!
#1805469
1!
#1805699
0!
#1806519
1!
#1806554
0!
#1807166
1!
#1807405
0!
#1808035
1!
#1808245
0!
#1808878
1!
#1809111
0!
#1809735
1!
#1809933
0!
#1810593
1!
#1810792
0!
#1811415
1!
#1812081
0!
#1812296
1!
#1812504
0!
#1813135
1!
#1813354
0!
#1813967
1!
#1814629
0!
#1814844
1!
#1815033
0!
#1815690
1!
#1815898
0!
#1821628
1!
#1821867
0!
#1822488
1!
#1823128
0!
#1823341
1!
#1823562
0!
#1824194
1!
#1824408
0!
#1825038
1!
#1825261
0!
#1825892
1!
#1826524
0!
#1826736
1!
#1826981
0!
#1827602
1!
#1827817
0!
#1828438
1!
#1829078
0!
#1829289
1!
#1829510
0!
#1830141
1!
#1830381
0!
#1830991
1!
#1831225
0!
#1831852
1!
#1832073
0!
#1832709
1!
#1832917
0!
#1833538
1!
#1833777
0!
#1834397
1!
#1834639
0!
#1835257
1!
#1835472
0!
#1836110
1!
#1836324
0!
#1836953
1!
#1837175
0!
#1837802
1!
#1838442
0!
#1838656
1!
#1838876
0!
#1839505
1!
#1839719
0!
#1840365
1!
#1841004
0!
#1841213
1!
#1841434
0!
#1842046
1!
#1842281
0!
#1848016
1!
#1848254
0!
#1848850
1!
#1849515
0!
#1849730
1!
#1849950
0!
#1850553
1!
#1850794
0!
#1851409
1!
#1851622
0!
#1852276
1!
#1852919
0!
#1853126
1!
#1853338
0!
#1853957
1!
#1854196
0!
#1854816
1!
#1855456
0!
#1855668
1!
#1855876
0!
#1856505
1!
#1856726
0!
#1857371
1!
#1857607
0!
#1858228
1!
#1858442
0!
#1859068
1!
#1859282
0!
#1859910
1!
#1860151
0!
#1860767
1!
#1861005
0!
#1861616
1!
#1861851
0!
#1862479
1!
#1862676
0!
#1863312
1!
#1863545
0!
#1864164
1!
#1864830
0!
#1865019
1!
#1865230
0!
#1865886
1!
#1866082
0!
#1866715
1!
#1867377
0!
#1867593
1!
#1867812
0!
#1868438
1!
#1868652
0!
#1874388
1!
#1874623
0!
#1875223
1!
#1875866
0!
#1876073
1!
#1876309
0!
#1876927
1!
#1877165
0!
#1877776
1!
#1877990
0!
#1878644
1!
#1879289
0!
#1879498
1!
#1879711
0!
#1880328
1!
#1880566
0!
#1881179
1!
#1881837
0!
#1882033
1!
#1882245
0!
#1882888
1!
#1883123
0!
#1883745
1!
#1883960
0!
#1884581
1!
#1884820
0!
#1885437
1!
#1885677
0!
#1886282
1!
#1886521
0!
#1887131
1!
#1887365
0!
#1887994
1!
#1888214
0!
#1888852
1!
#1889062
0!
#1889682
1!
#1889921
0!
#1890540
1!
#1891188
0!
#1891401
1!
#1891622
0!
#1892253
1!
#1892468
0!
#1893083
1!
#1893734
0!
#1893929
1!
#1894162
0!
#1894799
1!
#1895036
0!
#1900755
1!
#1900990
0!
#1901591
1!
#1902258
0!
#1902467
1!
#1902679
0!
#1903299
1!
#1903536
0!
#1904155
1!
#1904397
0!
#1904999
1!
#1905665
0!
#1905850
1!
#1906098
0!
#1906705
1!
#1906944
0!
#1907555
1!
#1908201
0!
#1908398
1!
#1908636
0!
#1909258
1!
#1909497
0!
#1910115
1!
#1910329
0!
#1910950
1!
#1911190
0!
#1911819
1!
#1912034
0!
#1912664
1!
#1912878
0!
#1913509
1!
#1913749
0!
#1914359
1!
#1914603
0!
#1915223
1!
#1915419
0!
#1916079
1!
#1916288
0!
#1916956
1!
#1917549
0!
#1917761
1!
#1917970
0!
#1918625
1!
#1918822
0!
#1919472
1!
#1920111
0!
#1920325
1!
#1920545
0!
#1921171
1!
#1921386
0!
#1927122
1!
#1927340
0!
#1927983
1!
#1928625
0!
#1928840
1!
#1929059
0!
#1929680
1!
#1929895
0!
#1930522
1!
#1930763
0!
#1931390
1!
#1932027
0!
#1932232
1!
#1932440
0!
#1933071
1!
#1933296
0!
#1933929
1!
#1934571
0!
#1934786
1!
#1935006
0!
#1935635
1!
#1935850
0!
#1936486
1!
#1936714
0!
#1937340
1!
#1937562
0!
#1938187
1!
#1938424
0!
#1939043
1!
#1939257
0!
#1939893
1!
#1940099
0!
#1940724
1!
#1940946
0!
#1941594
1!
#1941804
0!
#1942449
1!
#1942663
0!
#1943296
1!
#1943931
0!
#1944128
1!
#1944366
0!
#1944992
1!
#1945230
0!
#1945849
1!
#1946489
0!
#1946678
1!
#1946910
0!
#1947540
1!
#1947765
0!
#1953489
1!
#1953724
0!
#1954352
1!
#1954992
0!
#1955197
1!
#1955432
0!
#1956049
1!
#1956287
0!
#1956908
1!
#1957124
0!
#1957758
1!
#1958392
0!
#1958590
1!
#1958828
0!
#1959454
1!
#1959692
0!
#1960310
1!
#1960949
0!
#1961162
1!
#1961369
0!
#1961998
1!
#1962218
0!
#1962861
1!
#1963071
0!
#1963717
1!
#1963931
0!
#1964551
1!
#1964792
0!
#1965410
1!
#1965650
0!
#1966255
1!
#1966494
0!
#1967099
1!
#1967337
0!
#1967972
1!
#1968180
0!
#1968807
1!
#1969028
0!
#1969670
1!
#1970308
0!
#1970523
1!
#1970743
0!
#1971364
1!
#1971579
0!
#1972224
1!
#1972873
0!
#1973057
1!
#1973306
0!
#1973911
1!
#1974148
0!
#1979881
1!
#1980109
0!
#1980723
1!
#1981367
0!
#1981582
1!
#1981792
0!
#1982423
1!
#1982645
0!
#1983276
1!
#1983506
0!
#1984120
1!
#1984762
0!
#1984975
1!
#1985186
0!
#1985817
1!
#1986036
0!
#1986669
1!
#1987329
0!
#1987543
1!
#1987733
0!
#1988390
1!
#1988590
0!
#1989242
1!
#1989442
0!
#1990077
1!
#1990315
0!
#1990938
1!
#1991152
0!
#1991778
1!
#1992019
0!
#1992621
1!
#1992860
0!
#1993489
1!
#1993703
0!
#1994332
1!
#1994572
0!
#1995182
1!
#1995419
0!
#1996023
1!
#1996688
0!
#1996890
1!
#1997121
0!
#1997735
1!
#1997973
0!
#1998592
1!
#1999232
0!
#1999445
1!
#1999652
0!
#2000283
1!
#2000504
0!
#2006244
1!
#2006472
0!
#2007099
1!
#2007745
0!
#2007955
1!
#2008169
0!
#2008788
1!
#2009026
0!
#2009638
1!
#2009871
0!
#2010499
1!
#2011140
0!
#2011345
1!
#2011580
0!
#2012195
1!
#2012434
0!
#2013046
1!
#2013705
0!
#2013901
1!
#2014112
0!
#2014754
1!
#2014991
0!
#2015612
1!
#2015828
0!
#2016454
1!
#2016696
0!
#2017314
1!
#2017530
0!
#2018144
1!
#2018383
0!
#2019014
1!
#2019231
0!
#2019860
1!
#2020089
0!
#2020703
1!
#2020942
0!
#2021565
1!
#2021779
0!
#2022406
1!
#2023046
0!
#2023257
1!
#2023478
0!
#2024111
1!
#2024347
0!
#2024951
1!
#2025614
0!
#2025816
1!
#2026046
0!
#2026659
1!
#2026897
0!
#2032602
1!
#2032846
0!
#2033456
1!
#2034119
0!
#2034335
1!
#2034555
0!
#2035176
1!
#2035392
0!
#2036020
1!
#2036265
0!
#2036881
1!
#2037519
0!
#2037729
1!
#2037950
0!
#2038590
1!
#2038793
0!
#2039420
1!
#2040061
0!
#2040267
1!
#2040503
0!
#2041122
1!
#2041361
0!
#2041980
1!
#2042194
0!
#2042829
1!
#2043044
0!
#2043673
1!
#2043897
0!
#2044527
1!
#2044765
0!
#2045387
1!
#2045602
0!
#2046230
1!
#2046471
0!
#2047073
1!
#2047315
0!
#2047942
1!
#2048158
0!
#2048788
1!
#2049424
0!
#2049633
1!
#2049854
0!
#2050487
1!
#2050722
0!
#2051321
1!
#2051989
0!
#2052198
1!
#2052410
0!
#2053030
1!
#2053268
0!
#2058976
1!
#2059197
0!
#2059842
1!
#2060480
0!
#2060696
1!
#2060917
0!
#2061546
1!
#2061765
0!
#2062391
1!
#2062633
0!
#2063250
1!
#2063900
0!
#2064084
1!
#2064332
0!
#2064942
1!
#2065179
0!
#2065781
1!
#2065806
0!
#2065808
1!
#2066445
0!
#2066647
1!
#2066879
0!
#2067494
1!
#2067733
0!
#2068353
1!
#2068568
0!
#2069204
1!
#2069410
0!
#2070060
1!
#2070256
0!
#2070903
1!
#2071140
0!
#2071760
1!
#2071975
0!
#2072610
1!
#2072824
0!
#2073451
1!
#2073674
0!
#2074301
1!
#2074540
0!
#2075160
1!
#2075802
0!
#2076018
1!
#2076225
0!
#2076854
1!
#2077074
0!
#2077714
1!
#2078352
0!
#2078568
1!
#2078779
0!
#2079409
1!
#2079626
0!
#2085361
1!
#2085599
0!
#2086201
1!
#2086863
0!
#2087066
1!
#2087297
0!
#2087911
1!
#2088150
0!
#2088771
1!
#2088985
0!
#2089622
1!
#2090271
0!
#2090467
1!
#2090678
0!
#2091319
1!
#2091557
0!
#2092179
1!
#2092823
0!
#2093039
1!
#2093260
0!
#2093863
1!
#2094105
0!
#2094708
1!
#2094943
0!
#2095574
1!
#2095794
0!
#2096433
1!
#2096642
0!
#2097260
1!
#2097499
0!
#2098135
1!
#2098342
0!
#2098969
1!
#2099190
0!
#2099831
1!
#2100042
0!
#2100688
1!
#2100902
0!
#2101537
1!
#2102172
0!
#2102368
1!
#2102605
0!
#2103227
1!
#2103465
0!
#2104088
1!
#2104734
0!
#2104924
1!
#2105172
0!
#2105774
1!
#2106016
0!
#2111732
1!
#2111952
0!
#2112592
1!
#2113230
0!
#2113445
1!
#2113665
0!
#2114293
1!
#2114509
0!
#2115137
1!
#2115352
0!
#2115997
1!
#2116646
0!
#2116857
1!
#2117078
0!
#2117683
1!
#2117923
0!
#2118531
1!
#2119175
0!
#2119396
1!
#2119612
0!
#2120240
1!
#2120478
0!
#2121099
1!
#2121314
0!
#2121941
1!
#2122183
0!
#2122785
1!
#2123026
0!
#2123657
1!
#2123857
0!
#2124484
1!
#2124709
0!
#2125343
1!
#2125582
0!
#2126201
1!
#2126417
0!
#2127050
1!
#2127266
0!
#2127893
1!
#2128542
0!
#2128752
1!
#2128968
0!
#2129614
1!
#2129828
0!
#2130448
1!
#2131095
0!
#2131309
1!
#2131530
0!
#2132160
1!
#2132375
0!
#2138113
1!
#2138335
0!
#2138958
1!
#2139600
0!
#2139814
1!
#2140035
0!
#2140664
1!
#2140879
0!
#2141514
1!
#2141719
0!
#2142371
1!
#2143015
0!
#2143224
1!
#2143437
0!
#2144056
1!
#2144296
0!
#2144906
1!
#2145561
0!
#2145761
1!
#2145969
0!
#2146625
1!
#2146834
0!
#2147454
1!
